year,file,mentions
2001,data/tools/2001/028.pdf,0
2001,data/tools/2001/039.pdf,0
2001,data/tools/2001/037.pdf,0
2001,data/tools/2001/030.pdf,0
2001,data/tools/2001/035.pdf,0
2001,data/tools/2001/029.pdf,0
2001,data/tools/2001/025.pdf,0
2001,data/tools/2001/031.pdf,0
2001,data/tools/2001/036.pdf,0
2001,data/tools/2001/027.pdf,0
2001,data/tools/2001/034.pdf,0
2001,data/tools/2001/023.pdf,0
2001,data/tools/2001/026.pdf,0
2001,data/tools/2001/032.pdf,0
2001,data/tools/2001/022.pdf,0
2001,data/tools/2001/024.pdf,0
2001,data/tools/2001/038.pdf,0
2001,data/tools/2001/033.pdf,0
2002,data/tools/2002/028.pdf,0
2002,data/tools/2002/039.pdf,0
2002,data/tools/2002/037.pdf,0
2002,data/tools/2002/021.pdf,0
2002,data/tools/2002/030.pdf,0
2002,data/tools/2002/035.pdf,0
2002,data/tools/2002/029.pdf,0
2002,data/tools/2002/025.pdf,0
2002,data/tools/2002/031.pdf,0
2002,data/tools/2002/036.pdf,0
2002,data/tools/2002/027.pdf,0
2002,data/tools/2002/034.pdf,1
2002,data/tools/2002/023.pdf,0
2002,data/tools/2002/026.pdf,1
2002,data/tools/2002/032.pdf,0
2002,data/tools/2002/022.pdf,1
2002,data/tools/2002/024.pdf,0
2002,data/tools/2002/038.pdf,0
2002,data/tools/2002/033.pdf,0
2004,data/tools/2004/05.pdf,1
2004,data/tools/2004/06.pdf,0
2004,data/tools/2004/15.pdf,0
2004,data/tools/2004/02.pdf,0
2004,data/tools/2004/08.pdf,1
2004,data/tools/2004/04.pdf,0
2004,data/tools/2004/14.pdf,0
2004,data/tools/2004/01.pdf,0
2004,data/tools/2004/10.pdf,0
2004,data/tools/2004/03.pdf,0
2004,data/tools/2004/09.pdf,0
2004,data/tools/2004/07.pdf,0
2004,data/tools/2004/12.pdf,0
2004,data/tools/2004/13.pdf,0
2004,data/tools/2004/11.pdf,0
2005,data/tools/2005/Farol.pdf,0
2005,data/tools/2005/simCPN.pdf,0
2005,data/tools/2005/ControlPro.pdf,1
2005,data/tools/2005/odyssey-mda.pdf,0
2005,data/tools/2005/gridunit.pdf,1
2005,data/tools/2005/JaBUtiRD.pdf,0
2005,data/tools/2005/CBDUnit.pdf,0
2005,data/tools/2005/GOD.pdf,0
2005,data/tools/2005/Plavis.pdf,0
2005,data/tools/2005/VisualAgent.pdf,0
2005,data/tools/2005/GemetricsWeb.pdf,0
2005,data/tools/2005/IIMPaR.pdf,0
2006,data/tools/2006/20-Regiane Brito-Definicao e Implementacao de um Modelo.pdf,1
2006,data/tools/2006/24-Sandro Andrade-A Management Tool.pdf,0
2006,data/tools/2006/14-Marcelo Mrack-Merlin.pdf,1
2006,data/tools/2006/21-Edison Shimabukuro-Captor.pdf,1
2006,data/tools/2006/11-Alexandre Correa-Odyssey-PSW.pdf,0
2006,data/tools/2006/01-Licio Brito-WebSCharts.pdf,0
2006,data/tools/2006/12-Luiz Lopes-Odyssey_CCS.pdf,0
2006,data/tools/2006/05-Rafael Cepeda-Tracer e Phoenix.pdf,0
2006,data/tools/2006/19-Bruno Segrini-Evoluindo a Definicao de Processos.pdf,0
2006,data/tools/2006/07-Bruno Araujo-Regula.pdf,0
2006,data/tools/2006/09-Rafael Arnold-Proposta de uma Ferramenta de Suporte.pdf,0
2006,data/tools/2006/06-Aline Martins-ReqODE.pdf,1
2006,data/tools/2006/08-Wendell Silva-QSEETAS.pdf,0
2006,data/tools/2006/10-Cristine Dantas-Odyssey-WI.pdf,0
2006,data/tools/2006/03-Ernani Sales-Uma Ferramenta para Recuparacao de Modelos.pdf,1
2006,data/tools/2006/04-Bruno Silva-TransformsSBES2006.pdf,0
2006,data/tools/2006/18-Taciana Vanderlei-Folksonomy.pdf,0
2006,data/tools/2006/25-Ana Freitas-A Distributed Software Process.pdf,0
2006,data/tools/2006/22-Leonardo Murta-Archtrace.pdf,0
2006,data/tools/2006/13-Debora Paiva-MVCASE.pdf,1
2006,data/tools/2006/23-Jorge Mascena-ADMIRE.pdf,0
2006,data/tools/2006/16-Naaliel Mendes-Jaca Tool.pdf,0
2006,data/tools/2006/02-Alexandre Hausen-ValiMPI.pdf,0
2006,data/tools/2006/15-Arilo Dias Neto-Maraka.pdf,0
2006,data/tools/2006/17-Adailton Lima-Gerencia Flexivel de Processo.pdf,1
2007,data/tools/2007/Ferramentas02.pdf,1
2007,data/tools/2007/Ferramentas08.pdf,0
2007,data/tools/2007/Ferramentas10.pdf,0
2007,data/tools/2007/Ferramentas04.pdf,0
2007,data/tools/2007/Ferramentas07.pdf,0
2007,data/tools/2007/Ferramentas06.pdf,0
2007,data/tools/2007/Ferramentas12.pdf,0
2007,data/tools/2007/Ferramentas14.pdf,1
2007,data/tools/2007/Ferramentas01.pdf,0
2007,data/tools/2007/Ferramentas05.pdf,0
2007,data/tools/2007/Ferramentas09.pdf,0
2007,data/tools/2007/Ferramentas13.pdf,0
2007,data/tools/2007/Ferramentas03.pdf,0
2007,data/tools/2007/Ferramentas11.pdf,0
2008,data/tools/2008/06 - CRISTA - Code Reading Implemented with Stepwise Abstraction.pdf,1
2008,data/tools/2008/03 - GCS-ODE - Uma Ferramenta de Apoio a GCS Integrada ao Ambiente ODE.pdf,0
2008,data/tools/2008/02 - A Ferramenta Batcave para a Verificacao de Especificacoes Formais na Notacao B.pdf,1
2008,data/tools/2008/11 - FIB - Um Framework de Apoio a Construcao de Interface Visando Aumento de Produtividade no Desenvolvimento de Software.pdf,0
2008,data/tools/2008/08 - TeTooDS - Testing Tool for Dynamic Systems.pdf,1
2008,data/tools/2008/07 - PARADIGMA - Uma Ferramenta para Modelagem de Requisitos a partir de Especificacoes em Linguagem Natural.pdf,0
2008,data/tools/2008/04 - Odyssey-MEC - Uma Ferramenta para o Controle da Evolucao no Contexto do Desenvolvimento Digirido a Modelos.pdf,0
2008,data/tools/2008/10 - FAMP - uma Ferramenta de Suporte a Avaliacoes CMMI Baseadas no Metodo SCAMPI.pdf,0
2008,data/tools/2008/09 - Featincode - Suporte a Compreensao do Espalhamento de Caracteristicas pela Interpretacao Visual de Rastros de Execucao.pdf,0
2008,data/tools/2008/05 - Automated Test Execution Effort Estimation Based on Functional Test Specifications.pdf,0
2008,data/tools/2008/01 - An Eclipse-Based Visualization Tool for Software Comprehension.pdf,0
2009,data/tools/2009/58516 RBTTool.pdf,1
2009,data/tools/2009/57880 WISE.pdf,0
2009,data/tools/2009/58508 BAST.pdf,1
2009,data/tools/2009/58537 Presley.pdf,0
2009,data/tools/2009/58532 KSE.pdf,0
2009,data/tools/2009/58509 CRAB.pdf,1
2009,data/tools/2009/58534 MRES.pdf,0
2009,data/tools/2009/58528 Transforms.pdf,0
2009,data/tools/2009/58527 SafeRefactor.pdf,0
2009,data/tools/2009/58500.pdf,1
2009,data/tools/2009/58517.pdf,0
2009,data/tools/2009/58514 O-FIm.pdf,0
2010,data/tools/2010/05.pdf,0
2010,data/tools/2010/06.pdf,0
2010,data/tools/2010/15.pdf,0
2010,data/tools/2010/02.pdf,0
2010,data/tools/2010/08.pdf,1
2010,data/tools/2010/04.pdf,1
2010,data/tools/2010/14.pdf,0
2010,data/tools/2010/01.pdf,1
2010,data/tools/2010/10.pdf,1
2010,data/tools/2010/03.pdf,0
2010,data/tools/2010/09.pdf,0
2010,data/tools/2010/16.pdf,1
2010,data/tools/2010/07.pdf,1
2010,data/tools/2010/12.pdf,1
2010,data/tools/2010/13.pdf,0
2010,data/tools/2010/11.pdf,0
